{
  "ListArr": [
    {
      "Header": "Тестовое задание",
      "Description": "Выполнить тестовое задание",
      "Data": "2002.09.26",
      "image": "https://mamarabotaet.ru/netcat_files/211/493/delat_ili_net_testovoe_zadanie_frilanseru.jpg",
      "completed": true,
      "id": 1
    },
    {
      "Header": "Покупка",
      "Description": "Купить фрукты",
      "Data": "2002.10.16",
      "image": "https://cs9.pikabu.ru/post_img/big/2016/12/21/6/1482312906146885236.jpg",
      "completed": false,
      "id": 2
    }
  ]
}